Date,"First Name","Last Name","Email","Amount","Currency","InvoiceID","Country"
08.22.2017,"Simon","Grimm","saimon@devdactic.com","25,00","EUR","0001","GER"
08.21.2017,"Raphael","Arthur","saimon@devdactic.com","25,00","EUR","0002","GER"
08.19.2017,"Jhon","Rocha","saimon@devdactic.com","25,00","EUR","0003","GER"
08.18.2017,"Carol","Moreira","saimon@devdactic.com","25,00","EUR","0004","GER"
08.17.2017,"Lucy","Skywalker","saimon@devdactic.com","25,00","EUR","0005","GER"
08.16.2017,"Luke","Skywalker","saimon@devdactic.com","25,00","EUR","0006","GER"